<?xml version="1.0" encoding="UTF-8" standalone="no"?>
<!-- Created with Inkscape (http://www.inkscape.org/) -->

<svg
   width="256"
   height="256"
   viewBox="0 0 67.733332 67.733333"
   version="1.1"
   id="svg5"
   inkscape:version="1.2.2 (b0a8486541, 2022-12-01)"
   sodipodi:docname="gg.svg"
   xmlns:inkscape="http://www.inkscape.org/namespaces/inkscape"
   xmlns:sodipodi="http://sodipodi.sourceforge.net/DTD/sodipodi-0.dtd"
   xmlns="http://www.w3.org/2000/svg"
   xmlns:svg="http://www.w3.org/2000/svg">
  <sodipodi:namedview
     id="namedview7"
     pagecolor="#ffffff"
     bordercolor="#000000"
     borderopacity="0.25"
     inkscape:showpageshadow="2"
     inkscape:pageopacity="0.0"
     inkscape:pagecheckerboard="0"
     inkscape:deskcolor="#d1d1d1"
     inkscape:document-units="mm"
     showgrid="false"
     inkscape:zoom="1.6899317"
     inkscape:cx="191.42785"
     inkscape:cy="206.81309"
     inkscape:window-width="1920"
     inkscape:window-height="1013"
     inkscape:window-x="0"
     inkscape:window-y="0"
     inkscape:window-maximized="1"
     inkscape:current-layer="layer1" />
  <defs
     id="defs2">
    <rect
       x="87.821945"
       y="284.414"
       width="336.13696"
       height="272.54965"
       id="rect113" />
    <rect
       x="87.821945"
       y="284.414"
       width="336.13696"
       height="272.54965"
       id="rect959" />
  </defs>
  <g
     inkscape:label="Katman 1"
     inkscape:groupmode="layer"
     id="layer1">
    <g
       id="g1367"
       transform="matrix(1.2699989,0,0,1.2699989,-80.808872,-84.339712)">
      <path
         id="path1356"
         style="fill:#ffe680;stroke:none;stroke-width:0.3;stroke-linejoin:round"
         d="m 98.168685,78.81276 c -1.604107,0 -3.167105,0.148517 -4.68912,0.444934 l -1.318782,5.721098 2.888712,-0.870748 c 0.963355,-0.171532 1.944773,-0.257348 2.944524,-0.257348 2.936961,0 5.219731,0.945351 6.848161,2.835486 1.61388,1.904651 2.42104,4.594354 2.42104,8.069275 0,3.41679 -0.78514,6.040963 -2.35541,7.872903 -1.57027,1.83198 -3.86738,2.74815 -6.891571,2.74815 -1.597069,0 -3.014845,-0.29941 -4.25297,-0.89762 1.233253,-0.71196 2.309048,-1.53978 3.22771,-2.48305 V 95.453088 90.698857 H 90.842 l -1.09554,4.754231 h 1.35599 v 4.252971 c -0.550413,0.485091 -1.249172,0.915651 -2.092896,1.292941 l -0.581877,0.17519 -1.318782,5.72058 c 2.474603,2.36093 6.110382,3.54138 10.907344,3.54138 5.074261,0 8.963161,-1.35228 11.667501,-4.0566 2.70432,-2.68979 4.0566,-6.564358 4.0566,-11.624093 0,-5.088801 -1.34461,-9.021738 -4.03437,-11.798763 -2.68981,-2.762511 -6.53571,-4.143934 -11.537285,-4.143934 z" />
      <path
         id="path1291"
         style="fill:#ffffff;stroke:none;stroke-width:0.3;stroke-linejoin:round"
         d="m 82.575321,75.715792 c -5.074245,0 -8.963675,1.352284 -11.668021,4.0566 -2.704314,2.689798 -4.0566,6.564882 -4.0566,11.624613 0,5.088796 1.345128,9.021735 4.034896,11.798765 2.689798,2.76251 6.535192,4.14341 11.536763,4.14341 1.603197,0 3.16526,-0.14837 4.686536,-0.44441 l 1.318782,-5.72058 -2.871142,0.86506 c -0.968262,0.17341 -1.954418,0.262 -2.959509,0.262 -2.936959,0 -5.219735,-0.94483 -6.848161,-2.83497 -1.613881,-1.904649 -2.421041,-4.594358 -2.421041,-8.069275 0,-3.416786 0.785144,-6.041481 2.355412,-7.873421 1.570266,-1.831972 3.867904,-2.748153 6.892085,-2.748153 1.597201,0 3.014251,0.300269 4.252454,0.898653 -1.233067,0.711824 -2.309191,1.5389 -3.22771,2.48202 v 6.542753 4.754231 H 89.74646 L 90.842,90.698857 h -1.353405 v -4.252971 c 0.547918,-0.482892 1.2414,-0.912157 2.079976,-1.288293 l 0.592212,-0.178801 1.318782,-5.721098 C 91.005043,76.89761 87.371352,75.715792 82.575321,75.715792 Z" />
      <path
         id="path1224"
         style="fill:#37abc8;stroke:none;stroke-width:0.3;stroke-linejoin:round"
         d="M 90.29578,68.075948 A 25,25 0 0 0 65.295756,93.075972 25,25 0 0 0 90.29578,118.076 25,25 0 0 0 115.2958,93.075972 25,25 0 0 0 90.29578,68.075948 Z m -7.720459,7.639844 c 4.796035,0 8.429719,1.181815 10.904244,3.541902 1.522016,-0.296418 3.085012,-0.444934 4.68912,-0.444934 5.001585,0 8.847475,1.381421 11.537285,4.143934 2.68977,2.777028 4.03437,6.709957 4.03437,11.798763 0,5.059741 -1.35228,8.934293 -4.0566,11.624093 -2.70435,2.70432 -6.59324,4.0566 -11.667501,4.0566 -4.796967,0 -8.432738,-1.18044 -10.907344,-3.54138 -1.521277,0.29604 -3.083338,0.44441 -4.686536,0.44441 -5.001576,0 -8.846962,-1.3809 -11.536763,-4.14341 -2.68977,-2.77703 -4.034896,-6.709964 -4.034896,-11.798765 0,-5.059736 1.352283,-8.934812 4.0566,-11.624613 2.704349,-2.704318 6.59377,-4.0566 11.668021,-4.0566 z m 0,5.059639 c -3.024184,0 -5.321817,0.916179 -6.892085,2.748153 -1.570269,1.831942 -2.355412,4.456631 -2.355412,7.873421 0,3.47492 0.807159,6.164624 2.421041,8.069275 1.628428,1.89014 3.9112,2.83497 6.848161,2.83497 1.005092,0 1.991246,-0.0886 2.959509,-0.262 l 3.453019,-1.04025 c 0.843725,-0.37729 1.542483,-0.80785 2.092896,-1.292941 v -4.252971 h -7.502385 v -4.754231 -6.542753 c 0.91852,-0.94312 1.994642,-1.770196 3.22771,-2.48202 -1.238204,-0.598385 -2.655252,-0.898653 -4.252454,-0.898653 z m 15.418698,3.075265 c -0.999752,0 -1.981168,0.08581 -2.944524,0.257348 l -3.480924,1.049549 c -0.838577,0.376137 -1.532057,0.8054 -2.079976,1.288293 v 4.252971 h 7.502384 v 4.754231 6.542752 c -0.918663,0.94327 -1.994456,1.77109 -3.22771,2.48305 1.238126,0.59821 2.655899,0.89762 4.25297,0.89762 3.024191,0 5.321301,-0.91617 6.891571,-2.74815 1.57027,-1.83194 2.35541,-4.456109 2.35541,-7.872903 0,-3.474924 -0.80716,-6.164622 -2.42104,-8.069275 -1.62843,-1.890137 -3.9112,-2.835486 -6.848161,-2.835486 z" />
    </g>
    <g
       aria-label="G"
       transform="matrix(-4.7855653,0,0,-4.7855653,1322.7827,1480.5635)"
       id="text957"
       style="font-weight:bold;font-size:9.33333px;line-height:1.25;font-family:Arimo;-inkscape-font-specification:'Arimo Bold';text-align:center;text-anchor:middle;white-space:pre;shape-inside:url(#rect959);fill:#ff5555;stroke:none;stroke-width:1.13386;stroke-linejoin:round" />
    <g
       aria-label="G"
       transform="matrix(4.7855653,0,0,4.7855653,-1142.1915,-1294.4114)"
       id="text111"
       style="font-weight:bold;font-size:9.33333px;line-height:1.25;font-family:Arimo;-inkscape-font-specification:'Arimo Bold';text-align:center;text-anchor:middle;white-space:pre;shape-inside:url(#rect113);fill:#71c837;stroke:none;stroke-width:1.13386;stroke-linejoin:round" />
  </g>
</svg>
